[0.024s][info][gc] Using Parallel
[0.025s][info][gc,heap,coops] Heap address: 0x00000000c0000000, size: 1024 MB, Compressed Oops mode: 32-bit
[0.602s][info][gc,start     ] GC(0) Pause Young (Allocation Failure)
[1.089s][info][gc,heap      ] GC(0) PSYoungGen: 196608K->32752K(229376K)
[1.090s][info][gc,heap      ] GC(0) ParOldGen: 0K->147664K(786432K)
[1.090s][info][gc,metaspace ] GC(0) Metaspace: 823K->823K(1056768K)
[1.090s][info][gc           ] GC(0) Pause Young (Allocation Failure) 192M->176M(992M) 487.963ms
[1.090s][info][gc,cpu       ] GC(0) User=0.72s Sys=0.14s Real=0.49s
[1.412s][info][gc,start     ] GC(1) Pause Young (Allocation Failure)
[1.878s][info][gc,heap      ] GC(1) PSYoungGen: 229360K->32768K(229376K)
[1.881s][info][gc,heap      ] GC(1) ParOldGen: 147664K->347531K(786432K)
[1.881s][info][gc,metaspace ] GC(1) Metaspace: 1078K->1078K(1056768K)
[1.881s][info][gc           ] GC(1) Pause Young (Allocation Failure) 368M->371M(992M) 468.255ms
[1.881s][info][gc,cpu       ] GC(1) User=1.00s Sys=0.09s Real=0.47s
[2.176s][info][gc,start     ] GC(2) Pause Young (Allocation Failure)
[2.777s][info][gc,heap      ] GC(2) PSYoungGen: 229376K->32768K(229376K)
[2.777s][info][gc,heap      ] GC(2) ParOldGen: 347531K->544635K(786432K)
[2.777s][info][gc,metaspace ] GC(2) Metaspace: 1078K->1078K(1056768K)
[2.777s][info][gc           ] GC(2) Pause Young (Allocation Failure) 563M->563M(992M) 601.301ms
[2.777s][info][gc,cpu       ] GC(2) User=1.00s Sys=0.14s Real=0.60s
[3.236s][info][gc,start     ] GC(3) Pause Young (Allocation Failure)
[3.628s][info][gc,heap      ] GC(3) PSYoungGen: 229376K->32768K(229376K)
[3.628s][info][gc,heap      ] GC(3) ParOldGen: 544635K->655139K(786432K)
[3.628s][info][gc,metaspace ] GC(3) Metaspace: 1078K->1078K(1056768K)
[3.628s][info][gc           ] GC(3) Pause Young (Allocation Failure) 755M->671M(992M) 391.681ms
[3.628s][info][gc,cpu       ] GC(3) User=1.03s Sys=0.05s Real=0.39s
[3.628s][info][gc,start     ] GC(4) Pause Full (Ergonomics)
[3.628s][info][gc,phases,start] GC(4) Marking Phase
[4.150s][info][gc,phases      ] GC(4) Marking Phase 522.030ms
[4.150s][info][gc,phases,start] GC(4) Summary Phase
[4.150s][info][gc,phases      ] GC(4) Summary Phase 0.031ms
[4.150s][info][gc,phases,start] GC(4) Adjust Roots
[4.152s][info][gc,phases      ] GC(4) Adjust Roots 2.055ms
[4.152s][info][gc,phases,start] GC(4) Compaction Phase
[4.890s][info][gc,phases      ] GC(4) Compaction Phase 738.140ms
[4.890s][info][gc,phases,start] GC(4) Post Compact
[4.893s][info][gc,phases      ] GC(4) Post Compact 2.866ms
[4.893s][info][gc,heap        ] GC(4) PSYoungGen: 32768K->0K(229376K)
[4.893s][info][gc,heap        ] GC(4) ParOldGen: 655139K->444092K(786432K)
[4.893s][info][gc,metaspace   ] GC(4) Metaspace: 1078K->1078K(1056768K)
[4.893s][info][gc             ] GC(4) Pause Full (Ergonomics) 671M->433M(992M) 1265.500ms
[4.893s][info][gc,cpu         ] GC(4) User=3.61s Sys=0.06s Real=1.26s
[4.998s][info][gc,heap,exit   ] Heap
[4.998s][info][gc,heap,exit   ]  PSYoungGen      total 229376K, used 40893K [0x00000000f0000000, 0x0000000100000000, 0x0000000100000000)
[4.998s][info][gc,heap,exit   ]   eden space 196608K, 20% used [0x00000000f0000000,0x00000000f27ef510,0x00000000fc000000)
[4.998s][info][gc,heap,exit   ]   from space 32768K, 0% used [0x00000000fc000000,0x00000000fc000000,0x00000000fe000000)
[4.998s][info][gc,heap,exit   ]   to   space 32768K, 0% used [0x00000000fe000000,0x00000000fe000000,0x0000000100000000)
[4.998s][info][gc,heap,exit   ]  ParOldGen       total 786432K, used 444092K [0x00000000c0000000, 0x00000000f0000000, 0x00000000f0000000)
[4.998s][info][gc,heap,exit   ]   object space 786432K, 56% used [0x00000000c0000000,0x00000000db1af090,0x00000000f0000000)
[4.998s][info][gc,heap,exit   ]  Metaspace       used 1080K, capacity 4557K, committed 4864K, reserved 1056768K
[4.998s][info][gc,heap,exit   ]   class space    used 92K, capacity 408K, committed 512K, reserved 1048576K
