[0.028s][info][gc] Using Parallel
[0.028s][info][gc,heap,coops] Heap address: 0x00000000c0000000, size: 1024 MB, Compressed Oops mode: 32-bit
[0.593s][info][gc,heap,exit ] Heap
[0.593s][info][gc,heap,exit ]  PSYoungGen      total 229376K, used 180512K [0x00000000f0000000, 0x0000000100000000, 0x0000000100000000)
[0.593s][info][gc,heap,exit ]   eden space 196608K, 91% used [0x00000000f0000000,0x00000000fb0480f0,0x00000000fc000000)
[0.593s][info][gc,heap,exit ]   from space 32768K, 0% used [0x00000000fe000000,0x00000000fe000000,0x0000000100000000)
[0.593s][info][gc,heap,exit ]   to   space 32768K, 0% used [0x00000000fc000000,0x00000000fc000000,0x00000000fe000000)
[0.593s][info][gc,heap,exit ]  ParOldGen       total 786432K, used 0K [0x00000000c0000000, 0x00000000f0000000, 0x00000000f0000000)
[0.595s][info][gc,heap,exit ]   object space 786432K, 0% used [0x00000000c0000000,0x00000000c0000000,0x00000000f0000000)
[0.595s][info][gc,heap,exit ]  Metaspace       used 818K, capacity 4535K, committed 4864K, reserved 1056768K
[0.595s][info][gc,heap,exit ]   class space    used 77K, capacity 402K, committed 512K, reserved 1048576K
