[0.024s][info][gc] Using Parallel
[0.024s][info][gc,heap,coops] Heap address: 0x00000000c0000000, size: 1024 MB, Compressed Oops mode: 32-bit
[0.518s][info][gc,start     ] GC(0) Pause Young (Allocation Failure)
[0.939s][info][gc,heap      ] GC(0) PSYoungGen: 196608K->32752K(229376K)
[0.939s][info][gc,heap      ] GC(0) ParOldGen: 0K->147672K(786432K)
[0.940s][info][gc,metaspace ] GC(0) Metaspace: 824K->824K(1056768K)
[0.940s][info][gc           ] GC(0) Pause Young (Allocation Failure) 192M->176M(992M) 421.831ms
[0.940s][info][gc,cpu       ] GC(0) User=0.69s Sys=0.16s Real=0.42s
[1.255s][info][gc,start     ] GC(1) Pause Young (Allocation Failure)
[1.655s][info][gc,heap      ] GC(1) PSYoungGen: 229360K->32768K(229376K)
[1.657s][info][gc,heap      ] GC(1) ParOldGen: 147672K->347528K(786432K)
[1.657s][info][gc,metaspace ] GC(1) Metaspace: 1078K->1078K(1056768K)
[1.657s][info][gc           ] GC(1) Pause Young (Allocation Failure) 368M->371M(992M) 402.874ms
[1.658s][info][gc,cpu       ] GC(1) User=0.92s Sys=0.19s Real=0.40s
[1.919s][info][gc,start     ] GC(2) Pause Young (Allocation Failure)
[2.453s][info][gc,heap      ] GC(2) PSYoungGen: 229376K->32768K(229376K)
[2.453s][info][gc,heap      ] GC(2) ParOldGen: 347528K->544640K(786432K)
[2.453s][info][gc,metaspace ] GC(2) Metaspace: 1078K->1078K(1056768K)
[2.453s][info][gc           ] GC(2) Pause Young (Allocation Failure) 563M->563M(992M) 534.039ms
[2.453s][info][gc,cpu       ] GC(2) User=0.98s Sys=0.13s Real=0.54s
[2.866s][info][gc,start     ] GC(3) Pause Young (Allocation Failure)
[3.226s][info][gc,heap      ] GC(3) PSYoungGen: 229376K->32768K(229376K)
[3.226s][info][gc,heap      ] GC(3) ParOldGen: 544640K->655216K(786432K)
[3.226s][info][gc,metaspace ] GC(3) Metaspace: 1078K->1078K(1056768K)
[3.226s][info][gc           ] GC(3) Pause Young (Allocation Failure) 755M->671M(992M) 360.536ms
[3.226s][info][gc,cpu       ] GC(3) User=0.94s Sys=0.09s Real=0.36s
[3.226s][info][gc,start     ] GC(4) Pause Full (Ergonomics)
[3.226s][info][gc,phases,start] GC(4) Marking Phase
[3.727s][info][gc,phases      ] GC(4) Marking Phase 501.134ms
[3.728s][info][gc,phases,start] GC(4) Summary Phase
[3.728s][info][gc,phases      ] GC(4) Summary Phase 0.040ms
[3.728s][info][gc,phases,start] GC(4) Adjust Roots
[3.729s][info][gc,phases      ] GC(4) Adjust Roots 1.678ms
[3.729s][info][gc,phases,start] GC(4) Compaction Phase
[4.430s][info][gc,phases      ] GC(4) Compaction Phase 700.335ms
[4.430s][info][gc,phases,start] GC(4) Post Compact
[4.433s][info][gc,phases      ] GC(4) Post Compact 3.256ms
[4.433s][info][gc,heap        ] GC(4) PSYoungGen: 32768K->0K(229376K)
[4.433s][info][gc,heap        ] GC(4) ParOldGen: 655216K->444091K(786432K)
[4.433s][info][gc,metaspace   ] GC(4) Metaspace: 1078K->1078K(1056768K)
[4.433s][info][gc             ] GC(4) Pause Full (Ergonomics) 671M->433M(992M) 1206.863ms
[4.433s][info][gc,cpu         ] GC(4) User=3.78s Sys=0.08s Real=1.21s
[4.541s][info][gc,heap,exit   ] Heap
[4.541s][info][gc,heap,exit   ]  PSYoungGen      total 229376K, used 40893K [0x00000000f0000000, 0x0000000100000000, 0x0000000100000000)
[4.541s][info][gc,heap,exit   ]   eden space 196608K, 20% used [0x00000000f0000000,0x00000000f27ef510,0x00000000fc000000)
[4.542s][info][gc,heap,exit   ]   from space 32768K, 0% used [0x00000000fc000000,0x00000000fc000000,0x00000000fe000000)
[4.542s][info][gc,heap,exit   ]   to   space 32768K, 0% used [0x00000000fe000000,0x00000000fe000000,0x0000000100000000)
[4.542s][info][gc,heap,exit   ]  ParOldGen       total 786432K, used 444091K [0x00000000c0000000, 0x00000000f0000000, 0x00000000f0000000)
[4.542s][info][gc,heap,exit   ]   object space 786432K, 56% used [0x00000000c0000000,0x00000000db1aee48,0x00000000f0000000)
[4.542s][info][gc,heap,exit   ]  Metaspace       used 1080K, capacity 4557K, committed 4864K, reserved 1056768K
[4.542s][info][gc,heap,exit   ]   class space    used 92K, capacity 408K, committed 512K, reserved 1048576K
