Java HotSpot(TM) 64-Bit Server VM (25.211-b12) for windows-amd64 JRE (1.8.0_211-b12), built on Apr  1 2019 20:53:26 by "java_re" with MS VC++ 10.0 (VS2010)
Memory: 4k page, physical 8282708k(2414596k free), swap 13001300k(5530092k free)
CommandLine flags: -XX:+HeapDumpOnOutOfMemoryError -XX:InitialHeapSize=1073741824 -XX:MaxHeapSize=1073741824 -XX:MaxNewSize=536870912 -XX:NewRatio=3 -XX:NewSize=33554432 -XX:+PrintGC -XX:+PrintGCApplicationStoppedTime -XX:+PrintGCCause -XX:+PrintGCDateStamps -XX:+PrintGCDetails -XX:+PrintGCTimeStamps -XX:+PrintHeapAtGC -XX:+UseCompressedClassPointers -XX:+UseCompressedOops -XX:-UseLargePagesIndividualAllocation -XX:+UseParallelGC 
2019-08-02T11:30:04.532+0300: 1.066: Total time for which application threads were stopped: 0.0002116 seconds, Stopping threads took: 0.0001254 seconds
{Heap before GC invocations=1 (full 0):
 PSYoungGen      total 458752K, used 393216K [0x00000000e0000000, 0x0000000100000000, 0x0000000100000000)
  eden space 393216K, 100% used [0x00000000e0000000,0x00000000f8000000,0x00000000f8000000)
  from space 65536K, 0% used [0x00000000fc000000,0x00000000fc000000,0x0000000100000000)
  to   space 65536K, 0% used [0x00000000f8000000,0x00000000f8000000,0x00000000fc000000)
 ParOldGen       total 524288K, used 0K [0x00000000c0000000, 0x00000000e0000000, 0x00000000e0000000)
  object space 524288K, 0% used [0x00000000c0000000,0x00000000c0000000,0x00000000e0000000)
 Metaspace       used 3719K, capacity 4540K, committed 4864K, reserved 1056768K
  class space    used 408K, capacity 428K, committed 512K, reserved 1048576K
2019-08-02T11:30:04.694+0300: 1.228: [GC (Allocation Failure) [PSYoungGen: 393216K->65504K(458752K)] 393216K->354168K(983040K), 0.7113081 secs] [Times: user=1.42 sys=0.19, real=0.71 secs] 
Heap after GC invocations=1 (full 0):
 PSYoungGen      total 458752K, used 65504K [0x00000000e0000000, 0x0000000100000000, 0x0000000100000000)
  eden space 393216K, 0% used [0x00000000e0000000,0x00000000e0000000,0x00000000f8000000)
  from space 65536K, 99% used [0x00000000f8000000,0x00000000fbff8030,0x00000000fc000000)
  to   space 65536K, 0% used [0x00000000fc000000,0x00000000fc000000,0x0000000100000000)
 ParOldGen       total 524288K, used 288664K [0x00000000c0000000, 0x00000000e0000000, 0x00000000e0000000)
  object space 524288K, 55% used [0x00000000c0000000,0x00000000d19e6000,0x00000000e0000000)
 Metaspace       used 3719K, capacity 4540K, committed 4864K, reserved 1056768K
  class space    used 408K, capacity 428K, committed 512K, reserved 1048576K
}
{Heap before GC invocations=2 (full 1):
 PSYoungGen      total 458752K, used 65504K [0x00000000e0000000, 0x0000000100000000, 0x0000000100000000)
  eden space 393216K, 0% used [0x00000000e0000000,0x00000000e0000000,0x00000000f8000000)
  from space 65536K, 99% used [0x00000000f8000000,0x00000000fbff8030,0x00000000fc000000)
  to   space 65536K, 0% used [0x00000000fc000000,0x00000000fc000000,0x0000000100000000)
 ParOldGen       total 524288K, used 288664K [0x00000000c0000000, 0x00000000e0000000, 0x00000000e0000000)
  object space 524288K, 55% used [0x00000000c0000000,0x00000000d19e6000,0x00000000e0000000)
 Metaspace       used 3719K, capacity 4540K, committed 4864K, reserved 1056768K
  class space    used 408K, capacity 428K, committed 512K, reserved 1048576K
2019-08-02T11:30:05.406+0300: 1.940: [Full GC (Ergonomics) [PSYoungGen: 65504K->0K(458752K)] [ParOldGen: 288664K->352990K(524288K)] 354168K->352990K(983040K), [Metaspace: 3719K->3719K(1056768K)], 3.6599758 secs] [Times: user=9.45 sys=0.27, real=3.66 secs] 
Heap after GC invocations=2 (full 1):
 PSYoungGen      total 458752K, used 0K [0x00000000e0000000, 0x0000000100000000, 0x0000000100000000)
  eden space 393216K, 0% used [0x00000000e0000000,0x00000000e0000000,0x00000000f8000000)
  from space 65536K, 0% used [0x00000000f8000000,0x00000000f8000000,0x00000000fc000000)
  to   space 65536K, 0% used [0x00000000fc000000,0x00000000fc000000,0x0000000100000000)
 ParOldGen       total 524288K, used 352990K [0x00000000c0000000, 0x00000000e0000000, 0x00000000e0000000)
  object space 524288K, 67% used [0x00000000c0000000,0x00000000d58b7848,0x00000000e0000000)
 Metaspace       used 3719K, capacity 4540K, committed 4864K, reserved 1056768K
  class space    used 408K, capacity 428K, committed 512K, reserved 1048576K
}
2019-08-02T11:30:09.066+0300: 5.600: Total time for which application threads were stopped: 4.3718791 seconds, Stopping threads took: 0.0000380 seconds
{Heap before GC invocations=3 (full 2):
 PSYoungGen      total 458752K, used 393216K [0x00000000e0000000, 0x0000000100000000, 0x0000000100000000)
  eden space 393216K, 100% used [0x00000000e0000000,0x00000000f8000000,0x00000000f8000000)
  from space 65536K, 0% used [0x00000000f8000000,0x00000000f8000000,0x00000000fc000000)
  to   space 65536K, 0% used [0x00000000fc000000,0x00000000fc000000,0x0000000100000000)
 ParOldGen       total 524288K, used 352990K [0x00000000c0000000, 0x00000000e0000000, 0x00000000e0000000)
  object space 524288K, 67% used [0x00000000c0000000,0x00000000d58b7848,0x00000000e0000000)
 Metaspace       used 3719K, capacity 4540K, committed 4864K, reserved 1056768K
  class space    used 408K, capacity 428K, committed 512K, reserved 1048576K
2019-08-02T11:30:09.481+0300: 6.016: [Full GC (Ergonomics) [PSYoungGen: 393216K->205823K(458752K)] [ParOldGen: 352990K->523990K(524288K)] 746206K->729813K(983040K), [Metaspace: 3719K->3719K(1056768K)], 1.8748581 secs] [Times: user=6.25 sys=0.13, real=1.87 secs] 
Heap after GC invocations=3 (full 2):
 PSYoungGen      total 458752K, used 205823K [0x00000000e0000000, 0x0000000100000000, 0x0000000100000000)
  eden space 393216K, 52% used [0x00000000e0000000,0x00000000ec8ffd58,0x00000000f8000000)
  from space 65536K, 0% used [0x00000000f8000000,0x00000000f8000000,0x00000000fc000000)
  to   space 65536K, 0% used [0x00000000fc000000,0x00000000fc000000,0x0000000100000000)
 ParOldGen       total 524288K, used 523990K [0x00000000c0000000, 0x00000000e0000000, 0x00000000e0000000)
  object space 524288K, 99% used [0x00000000c0000000,0x00000000dffb5a70,0x00000000e0000000)
 Metaspace       used 3719K, capacity 4540K, committed 4864K, reserved 1056768K
  class space    used 408K, capacity 428K, committed 512K, reserved 1048576K
}
2019-08-02T11:30:11.357+0300: 7.892: Total time for which application threads were stopped: 1.8751598 seconds, Stopping threads took: 0.0000269 seconds
Heap
 PSYoungGen      total 458752K, used 356264K [0x00000000e0000000, 0x0000000100000000, 0x0000000100000000)
  eden space 393216K, 90% used [0x00000000e0000000,0x00000000f5bea130,0x00000000f8000000)
  from space 65536K, 0% used [0x00000000f8000000,0x00000000f8000000,0x00000000fc000000)
  to   space 65536K, 0% used [0x00000000fc000000,0x00000000fc000000,0x0000000100000000)
 ParOldGen       total 524288K, used 523990K [0x00000000c0000000, 0x00000000e0000000, 0x00000000e0000000)
  object space 524288K, 99% used [0x00000000c0000000,0x00000000dffb5a70,0x00000000e0000000)
 Metaspace       used 3726K, capacity 4540K, committed 4864K, reserved 1056768K
  class space    used 409K, capacity 428K, committed 512K, reserved 1048576K
